<svg width="1705" height="1878" version="1.1" viewBox="0 0 451.2 496.9" xmlns="http://www.w3.org/2000/svg">
	<g>
		<path d="m307.5 248.6-40.98-0.0887-20.41-35.53 20.56-35.44 40.98 0.0887 20.41 35.53z"/>
		<path d="m369.1 213.3-40.98-0.0887-20.41-35.53 20.56-35.44 40.98 0.0887 20.41 35.53z"/>
		<path d="m307.7 177.6-40.98-0.0887-20.41-35.53 20.56-35.44 40.98 0.0887 20.41 35.53z"/>
		<path d="m369.2 142.3-40.98-0.0887-20.41-35.53 20.56-35.44 40.98 0.08868 20.41 35.53z"/>
		<path d="m184.8 177.4-40.98-0.0887-20.41-35.53 20.56-35.44 40.98 0.0887 20.41 35.53z"/>
		<path d="m123.4 141.8-40.98-0.0887-20.41-35.53 20.56-35.44 40.98 0.08868 20.41 35.53z"/>
		<path d="m246.3 142-40.98-0.0887-20.41-35.53 20.56-35.44 40.98 0.08868 20.41 35.53z"/>
		<path d="m184.9 106.4-40.98-0.0887-20.41-35.53 20.56-35.44 40.98 0.08868 20.41 35.53z"/>
		<path d="m307.8 106.7-40.98-0.0887-20.41-35.53 20.56-35.44 40.98 0.08868 20.41 35.53z"/>
		<path d="m246.5 71.06-40.98-0.08868-20.41-35.53 20.56-35.44 40.98 0.08868 20.41 35.53z"/>
		<path d="m184.3 390.3-40.98-0.0887-20.41-35.53 20.56-35.44 40.98 0.0887 20.41 35.53z"/>
		<path d="m245.8 354.9-40.98-0.0887-20.41-35.53 20.56-35.44 40.98 0.0887 20.41 35.53z"/>
		<path d="m246 284-40.98-0.0887-20.41-35.53 20.56-35.44 40.98 0.0887 20.41 35.53z"/>
		<path d="m123.1 283.7-40.98-0.0887-20.41-35.53 20.56-35.44 40.98 0.0887 20.41 35.53z"/>
		<path d="m184.6 248.4-40.98-0.0887-20.41-35.53 20.56-35.44 40.98 0.0887 20.41 35.53z"/>
		<path d="m123.2 212.7-40.98-0.0887-20.41-35.53 20.56-35.44 40.98 0.0887 20.41 35.53z"/>
		<path d="m430.3 319.9-40.98-0.0887-20.41-35.53 20.56-35.44 40.98 0.0887 20.41 35.53z"/>
		<path d="m368.9 284.2-40.98-0.0887-20.41-35.53 20.56-35.44 40.98 0.0887 20.41 35.53z"/>
		<path d="m430.5 248.9-40.98-0.0887-20.41-35.53 20.56-35.44 40.98 0.0887 20.41 35.53z"/>
		<path d="m245.7 425.9-40.98-0.0887-20.41-35.53 20.56-35.44 40.98 0.0887 20.41 35.53z"/>
		<path d="m307.2 390.6-40.98-0.0887-20.41-35.53 20.56-35.44 40.98 0.0887 20.41 35.53z"/>
		<path d="m368.8 355.2-40.98-0.0887-20.41-35.53 20.56-35.44 40.98 0.0887 20.41 35.53z"/>
		<path d="m61.69 248.1-40.98-0.08868-20.41-35.53 20.56-35.44 40.98 0.0887 20.41 35.53z"/>
		<path d="m61.54 319.1-40.98-0.08869-20.41-35.53 20.56-35.44 40.98 0.0887 20.41 35.53z"/>
		<path d="m122.9 354.7-40.98-0.0887-20.41-35.53 20.56-35.44 40.98 0.0887 20.41 35.53z"/>
		<path d="m122.8 425.6-40.98-0.0887-20.41-35.53 20.56-35.44 40.98 0.0887 20.41 35.53z"/>
		<path d="m368.6 426.2-40.98-0.0887-20.41-35.53 20.56-35.44 40.98 0.0887 20.41 35.53z"/>
		<path d="m184.2 461.3-40.98-0.0887-20.41-35.53 20.56-35.44 40.98 0.0887 20.41 35.53z"/>
		<path d="m245.5 496.9-40.98-0.0887-20.41-35.53 20.56-35.44 40.98 0.0887 20.41 35.53z"/>
		<path d="m307.1 461.5-40.98-0.0887-20.41-35.53 20.56-35.44 40.98 0.0887 20.41 35.53z"/>
		<path d="m61.85 177.1-40.98-0.08868-20.41-35.53 20.56-35.44 40.98 0.0887 20.41 35.53z"/>
		<path d="m430.6 177.9-40.98-0.0887-20.41-35.53 20.56-35.44 40.98 0.0887 20.41 35.53z"/>
		<path d="m430.2 390.8-40.98-0.0887-20.41-35.53 20.56-35.44 40.98 0.0887 20.41 35.53z"/>
		<path d="m61.39 390-40.98-0.08868-20.41-35.53 20.56-35.44 40.98 0.0887 20.41 35.53z"/>
	</g>
</svg>
